NAME: cz10
TYPE: TSP
COMMENT: několik měst z čr, opsáno z atlasu
DIMENSION: 19
EDGE_WEIGHT_TYPE: EXPLICIT
EDGE_WEIGHT_FORMAT: FULL_MATRIX 
DISPLAY_DATA_TYPE: TWOD_DISPLAY
EDGE_WEIGHT_SECTION
  0 186 142 377  93 335 239 217  78 165 138 212 296 202 133 168 294 100  67
186   0 217 232 126 216 242 195 259 346 196  52 133 140 276  57 232 281 146
142 217   0 287 110 245  97  81 149 240  21 217 206 112 113 165 166 212 185
377 232 287   0 298  42 247 230 450 537 279 180 101 175 398 213 164 472 373
 93 126 110 298   0 256 185 138 166 253  89 118 186 123 169  74 215 188  75
335 216 245  42 256   0 205 188 408 495 237 164  83 133 356 195 122 430 331
239 242  97 247 185 205   0  47 246 335 118 207 196 102 208 185  92 309 260
217 195  81 230 138 188  47   0 230 319  96 160 149  55 192 138  85 312 213
 78 259 149 450 166 408 246 230   0  93 147 285 369 275  65 241 367  63 140
165 346 240 537 253 495 335 319  93   0 240 372 456 362 127 328 454 104 227
138 196  21 279  89 237 118  96 147 240   0 188 198 104 118 144 196 210 164
212  52 217 180 118 164 207 160 285 372 188   0  81 105 268  44 197 307 193
296 133 206 101 186  83 196 149 369 456 198  81   0  94 317 112 146 391 292
202 140 112 175 123 133 102  55 275 362 104 105  94   0 223  83  92 297 198
133 276 113 398 169 356 208 192  65 127 118 268 317 223   0 224 315 128 195
168  57 165 213  74 195 185 138 241 328 144  44 112  83 224   0 175 263 149
294 232 166 164 215 122  92  85 367 454 196 197 146  92 315 175   0 389 290
100 281 212 472 188 430 309 312  63 104 210 307 391 297 128 263 389   0 162
 67 146 185 373  75 331 260 213 140 227 164 193 292 198 195 149 290 162   0
DISPLAY_DATA_SECTION
 1  89 379
 2  61 194
 3 227 313
 4 214  25
 5 116 293
 6 236  68
 7 300 250
 8 255 237
 9 140 436
10 177 521
11 201 310
12 104 172
13 170 107
14 211 200
15 190 408
16 121 217
17 290 168
18  93 470
19  44 327
EOF
